{
  "collectCoverageFrom": [
    "src/**/*.js"
  ],
  "setupFiles": [
    "<rootDir>/config/polyfills.js",
    "<rootDir>/config/jest/jest.setup.js"
  ],
  "snapshotSerializers": [
    "enzyme-to-json/serializer"
  ],
  "testMatch": [
    "<rootDir>/src/**/?(*.)spec.js"
  ],
  "testEnvironment": "node",
  "testURL": "http://localhost",
  "transform": {
    "^.+\\.js$": "<rootDir>/node_modules/babel-jest",
    "^.+\\.css$": "<rootDir>/config/jest/cssTransform.js",
    "^(?!.*\\.(js|css|json)$)": "<rootDir>/config/jest/fileTransform.js"
  },
  "transformIgnorePatterns": [
    "[/\\\\]node_modules[/\\\\].+\\.(js|jsx)$"
  ],
  "moduleFileExtensions": [
    "js",
    "json"
  ]
}
